<?xml version="1.0" encoding="UTF-8" standalone="no"?>
<!-- Created with Inkscape (http://www.inkscape.org/) -->

<svg
   xmlns:dc="http://purl.org/dc/elements/1.1/"
   xmlns:cc="http://creativecommons.org/ns#"
   xmlns:rdf="http://www.w3.org/1999/02/22-rdf-syntax-ns#"
   xmlns:svg="http://www.w3.org/2000/svg"
   xmlns="http://www.w3.org/2000/svg"
   xmlns:xlink="http://www.w3.org/1999/xlink"
   xmlns:sodipodi="http://sodipodi.sourceforge.net/DTD/sodipodi-0.dtd"
   xmlns:inkscape="http://www.inkscape.org/namespaces/inkscape"
   version="1.0"
   width="500"
   height="500"
   viewBox="0 0 1000 1000"
   id="page"
   xml:space="preserve"
   inkscape:version="0.91 r13725"
   sodipodi:docname="all-scroll.svg"><sodipodi:namedview
     pagecolor="#ffffff"
     bordercolor="#666666"
     borderopacity="1"
     objecttolerance="10"
     gridtolerance="10"
     guidetolerance="10"
     inkscape:pageopacity="0"
     inkscape:pageshadow="2"
     inkscape:window-width="1271"
     inkscape:window-height="612"
     id="namedview20"
     showgrid="false"
     inkscape:zoom="0.472"
     inkscape:cx="250"
     inkscape:cy="250"
     inkscape:window-x="0"
     inkscape:window-y="0"
     inkscape:window-maximized="0"
     inkscape:current-layer="page" /><metadata
     id="metadata14"><rdf:RDF><cc:Work
         rdf:about=""><dc:format>image/svg+xml</dc:format><dc:type
           rdf:resource="http://purl.org/dc/dcmitype/StillImage" /><dc:title /></cc:Work></rdf:RDF></metadata><defs
     id="defs38"><linearGradient
       id="linearGradient2178"><stop
         id="stop2180"
         style="stop-color:#999999;stop-opacity:1"
         offset="0" /><stop
         id="stop2182"
         style="stop-color:#555555;stop-opacity:1"
         offset="1" /></linearGradient><linearGradient
       x1="231.98375"
       y1="128.61263"
       x2="231.98375"
       y2="755.79596"
       id="linearGradient2184"
       xlink:href="#linearGradient2178"
       gradientUnits="userSpaceOnUse"
       gradientTransform="translate(-2.475168e-5,0)" /><linearGradient
       x1="231.98375"
       y1="128.61263"
       x2="231.98375"
       y2="755.79596"
       id="linearGradient2184-8"
       xlink:href="#linearGradient2178-1"
       gradientUnits="userSpaceOnUse"
       gradientTransform="translate(-2.475168e-5,0)" /><linearGradient
       id="linearGradient2178-1"><stop
         id="stop2180-7"
         style="stop-color:#999999;stop-opacity:1"
         offset="0" /><stop
         id="stop2182-7"
         style="stop-color:#555555;stop-opacity:1"
         offset="1" /></linearGradient><filter
       x="-0.26190186"
       y="-0.22147858"
       width="1.5238037"
       height="1.4429572"
       color-interpolation-filters="sRGB"
       id="filter3793"><feGaussianBlur
         id="feGaussianBlur3795"
         stdDeviation="56.032546" /></filter></defs><path
     d="m 1321.018,968.56039 c -1.318,-23.067 10.722,-91.594 17,-116 9,-56.00001 6.5914,-115.87098 4.5914,-149.87098 -4,-22 -33.4211,-51.76451 -53.4731,-47.06451 -39,6 -34.8387,54.37634 -47.8387,102.37634 -5,14 -6.2796,55.55915 -8.2786,84.55915 -10e-4,-31 -12.7214,-168.55915 -21.7214,-195.55915 -9,-18 -31.376,-32.458 -50,-31 -16.075,1.259 -42.666,23.059 -52,52 -3.5,10.851 14.1064,181.30315 21.7224,201.55915 -9.391,-30.737 -48.7224,-157.55915 -93.7225,-175.55915 -36,0 -48.03096,25.75 -49.99996,60 -0.878,15.277 38.75646,156.40615 44.72246,170.55915 -6.913,-7.802 -19.002,-48 -41.00203,-78 -20,-32 -54.96774,-23.21506 -65.96774,-12.21506 -18,22 -19.03226,50.21506 15.96974,131.21506 -2,18 2.312,70.70901 13,103.00001 6.371,19.245 23.041,53.521 38,80 9.59503,16.984 22.11703,32.599 37.00003,45 20.629,17.19 41.905,25.447 67.3,27.63 30.605,2.633 61.664,2.855 92.207,-1.498 40.453,-5.766 77.122,-19.684 111.247,-44.924 38.259,-28.298 69.9,-88.91 91.421,-125.804 23.312,-39.966 26.38,-64.93901 23.382,-93.64601 -1.976,-18.916 16.441,-58.758 10.441,-77.758 -16,-22 -79,-38 -97,24"
     transform="matrix(1.2116858,0,0,1.1441971,-918.33865,-549.8724)"
     id="path1409-7"
     style="opacity:0.15;fill:#111111;fill-opacity:1;stroke:none;filter:url(#filter3793)"
     inkscape:connector-curvature="0" /><path
     d="m 650.24402,491.27316 c -1.318,-23.067 10.722,-91.594 17,-116 9,-56 6.5914,-115.87097 4.5914,-149.87097 -4,-22 -33.42112,-51.76451 -53.47312,-47.06451 -39,6 -34.83871,54.37634 -47.83871,102.37634 -5,14 -6.27957,55.55914 -8.27857,84.55914 -10e-4,-31 -12.72143,-168.55914 -21.72143,-195.55914 -9,-18 -31.376,-32.458 -50,-31 -16.075,1.259 -42.666,23.059 -52,52 -3.5,10.851 14.10643,181.30314 21.72243,201.55914 -9.391,-30.737 -48.72243,-157.55914 -93.72247,-175.55914 -36,0 -48.031,25.75 -50,60 -0.878,15.277 38.75643,156.40614 44.72243,170.55914 -6.913,-7.802 -19.002,-48 -41.002,-78 -20,-32 -54.96774,-23.21505 -65.96774,-12.21505 -18,22 -19.03226,50.21505 15.96974,131.21505 -2,18 2.312,70.709 13,103 6.371,19.245 23.041,53.521 38,80 9.595,16.984 22.117,32.599 37,45 20.62904,17.19 41.90504,25.447 67.30004,27.63 30.605,2.633 61.664,2.855 92.207,-1.498 40.453,-5.766 77.122,-19.684 111.247,-44.924 38.259,-28.298 69.9,-88.91 91.421,-125.804 23.312,-39.966 26.38,-64.939 23.382,-93.646 -1.976,-18.916 16.441,-58.758 10.441,-77.758 -16,-22 -79,-38 -97,24"
     id="path1409"
     style="opacity:0.75;fill:url(#linearGradient2184);fill-opacity:1;stroke:#000000;stroke-width:20;stroke-linecap:round;stroke-linejoin:round" /><path
     d="m 449.73616,527.95699 c 0,43.01075 17.68817,94.37634 17.68817,94.37634"
     id="path1391"
     style="opacity:0.75;fill:none;stroke:#000000;stroke-width:20;stroke-linecap:round;stroke-linejoin:round" /><path
     d="m 373.1125,573.33333 c 1.34409,30.91398 29,66 29,66"
     id="path1393"
     style="opacity:0.75;fill:none;stroke:#000000;stroke-width:20;stroke-linecap:round;stroke-linejoin:round" /><path
     d="m 538.1125,527.33333 c -8.06452,30.91398 3,84 3,84"
     id="path1395"
     style="opacity:0.75;fill:none;stroke:#000000;stroke-width:20;stroke-linecap:round;stroke-linejoin:round" /></svg>